<svg xmlns="http://www.w3.org/2000/svg" width="24" height="24" viewBox="0 0 24 24">
  <g id="icon-submit" transform="translate(-118 -332)">
    <rect id="Rectangle_4" data-name="Rectangle 4" width="24" height="24" rx="4" transform="translate(118 332)" fill="gray"/>
    <g id="up-arrow" transform="translate(83.519 338)">
      <g id="Group_7" data-name="Group 7" transform="translate(41.481 0)">
        <path id="Path_12" data-name="Path 12" d="M51.288,4.522,46.948.191a.665.665,0,0,0-.934,0l-4.341,4.33a.656.656,0,0,0,0,.928l.394.393a.654.654,0,0,0,.465.191A.667.667,0,0,0,43,5.843l2.538-2.526v8.026a.649.649,0,0,0,.647.657h.557a.674.674,0,0,0,.675-.657V3.288l2.552,2.555a.653.653,0,0,0,.924,0l.393-.393A.656.656,0,0,0,51.288,4.522Z" transform="translate(-41.481 0)" fill="#ebebeb"/>
      </g>
    </g>
  </g>
</svg>
