<svg xmlns="http://www.w3.org/2000/svg" width="24" height="24" viewBox="0 0 24 24">
  <g id="icon-up" transform="translate(-138 -411)">
    <rect id="Rectangle_13" data-name="Rectangle 13" width="24" height="24" transform="translate(138 411)" fill="none"/>
    <g id="icon-up-2" data-name="icon-up" transform="translate(138 298.667)">
      <g id="Group_14" data-name="Group 14" transform="translate(0 117.333)">
        <path id="Path_34" data-name="Path 34" d="M23.707,128.626l-11-11a1,1,0,0,0-1.414,0l-11,11a1,1,0,1,0,1.414,1.414L12,119.747,22.293,130.04a1,1,0,1,0,1.414-1.414Z" transform="translate(0 -117.333)" fill="#fff"/>
      </g>
    </g>
  </g>
</svg>
