<svg xmlns="http://www.w3.org/2000/svg" width="24.001" height="24" viewBox="0 0 24.001 24">
  <g id="icon-close">
    <path id="icon-close"  d="M14.123,12l9.438-9.438A1.5,1.5,0,1,0,21.439.441L12,9.879,2.562.441A1.5,1.5,0,0,0,.44,2.563L9.878,12,.44,21.439a1.5,1.5,0,1,0,2.122,2.122L12,14.123l9.438,9.438a1.5,1.5,0,0,0,2.122-2.122Z"/>
  </g>
</svg>
