<svg id="icon-add" xmlns="http://www.w3.org/2000/svg" width="32" height="32" viewBox="0 0 32 32">
  <path id="Path_10" data-name="Path 10" d="M16,0A16,16,0,1,0,32,16,16.018,16.018,0,0,0,16,0Zm0,0" fill="#ff6721"/>
  <path id="Path_11" data-name="Path 11" d="M131.871,128.47h-3.4v3.4a.8.8,0,1,1-1.6,0v-3.4h-3.4a.8.8,0,0,1,0-1.6h3.4v-3.4a.8.8,0,0,1,1.6,0v3.4h3.4a.8.8,0,1,1,0,1.6Zm0,0" transform="translate(-111.668 -111.668)" fill="#fafafa"/>
</svg>
